[2020-10-19 22:12:07,574] 10.0.1.3 requested http://fiisoft.ddns.net:5000/predict-dr
ERROR in app: Exception on /predict-dr [POST]
Traceback (most recent call last):
  File "/home/server/.virtualenvs/dr-server/lib/python3.6/site-packages/flask/app.py", line 2447, in wsgi_app
    response = self.full_dispatch_request()
  File "/home/server/.virtualenvs/dr-server/lib/python3.6/site-packages/flask/app.py", line 1952, in full_dispatch_request
    rv = self.handle_user_exception(e)
  File "/home/server/.virtualenvs/dr-server/lib/python3.6/site-packages/flask/app.py", line 1821, in handle_user_exception
    reraise(exc_type, exc_value, tb)
  File "/home/server/.virtualenvs/dr-server/lib/python3.6/site-packages/flask/_compat.py", line 39, in reraise
    raise value
  File "/home/server/.virtualenvs/dr-server/lib/python3.6/site-packages/flask/app.py", line 1950, in full_dispatch_request
    rv = self.dispatch_request()
  File "/home/server/.virtualenvs/dr-server/lib/python3.6/site-packages/flask/app.py", line 1936, in dispatch_request
    return self.view_functions[rule.endpoint](**req.view_args)
  File "/home/server/Workspace/ThanhThao/dr_server/src/dr_app/route.py", line 72, in diagnose_dr
    _tmp = f"{self.storage_path}/{_tmp_filename}"
NameError: name 'self' is not defined
[2020-10-19 22:13:26,151] 10.0.1.3 requested http://fiisoft.ddns.net:5000/predict-dr
ERROR in app: Exception on /predict-dr [POST]
Traceback (most recent call last):
  File "/home/server/.virtualenvs/dr-server/lib/python3.6/site-packages/flask/app.py", line 2447, in wsgi_app
    response = self.full_dispatch_request()
  File "/home/server/.virtualenvs/dr-server/lib/python3.6/site-packages/flask/app.py", line 1952, in full_dispatch_request
    rv = self.handle_user_exception(e)
  File "/home/server/.virtualenvs/dr-server/lib/python3.6/site-packages/flask/app.py", line 1821, in handle_user_exception
    reraise(exc_type, exc_value, tb)
  File "/home/server/.virtualenvs/dr-server/lib/python3.6/site-packages/flask/_compat.py", line 39, in reraise
    raise value
  File "/home/server/.virtualenvs/dr-server/lib/python3.6/site-packages/flask/app.py", line 1950, in full_dispatch_request
    rv = self.dispatch_request()
  File "/home/server/.virtualenvs/dr-server/lib/python3.6/site-packages/flask/app.py", line 1936, in dispatch_request
    return self.view_functions[rule.endpoint](**req.view_args)
  File "/home/server/Workspace/ThanhThao/dr_server/src/dr_app/route.py", line 73, in diagnose_dr
    cv2.imwrite()
TypeError: Required argument 'filename' (pos 1) not found
[2020-10-19 22:16:31,827] 10.0.1.3 requested http://fiisoft.ddns.net:5000/predict-dr
ERROR in app: Exception on /predict-dr [POST]
Traceback (most recent call last):
  File "/home/server/.virtualenvs/dr-server/lib/python3.6/site-packages/flask/app.py", line 2447, in wsgi_app
    response = self.full_dispatch_request()
  File "/home/server/.virtualenvs/dr-server/lib/python3.6/site-packages/flask/app.py", line 1952, in full_dispatch_request
    rv = self.handle_user_exception(e)
  File "/home/server/.virtualenvs/dr-server/lib/python3.6/site-packages/flask/app.py", line 1821, in handle_user_exception
    reraise(exc_type, exc_value, tb)
  File "/home/server/.virtualenvs/dr-server/lib/python3.6/site-packages/flask/_compat.py", line 39, in reraise
    raise value
  File "/home/server/.virtualenvs/dr-server/lib/python3.6/site-packages/flask/app.py", line 1950, in full_dispatch_request
    rv = self.dispatch_request()
  File "/home/server/.virtualenvs/dr-server/lib/python3.6/site-packages/flask/app.py", line 1936, in dispatch_request
    return self.view_functions[rule.endpoint](**req.view_args)
  File "/home/server/Workspace/ThanhThao/dr_server/src/dr_app/route.py", line 73, in diagnose_dr
    cv2.imwrite(_tmp, file.read())
TypeError: Expected cv::UMat for argument 'img'
[2020-10-19 22:17:29,906] 10.0.1.3 requested http://fiisoft.ddns.net:5000/login
INFO in route: thanhthao10722@gmail.com logged in successfully
[2020-10-19 22:17:38,048] 10.0.1.3 requested http://fiisoft.ddns.net:5000/predict-dr
ERROR in app: Exception on /predict-dr [POST]
Traceback (most recent call last):
  File "/home/server/.virtualenvs/dr-server/lib/python3.6/site-packages/flask/app.py", line 2447, in wsgi_app
    response = self.full_dispatch_request()
  File "/home/server/.virtualenvs/dr-server/lib/python3.6/site-packages/flask/app.py", line 1952, in full_dispatch_request
    rv = self.handle_user_exception(e)
  File "/home/server/.virtualenvs/dr-server/lib/python3.6/site-packages/flask/app.py", line 1821, in handle_user_exception
    reraise(exc_type, exc_value, tb)
  File "/home/server/.virtualenvs/dr-server/lib/python3.6/site-packages/flask/_compat.py", line 39, in reraise
    raise value
  File "/home/server/.virtualenvs/dr-server/lib/python3.6/site-packages/flask/app.py", line 1950, in full_dispatch_request
    rv = self.dispatch_request()
  File "/home/server/.virtualenvs/dr-server/lib/python3.6/site-packages/flask/app.py", line 1936, in dispatch_request
    return self.view_functions[rule.endpoint](**req.view_args)
  File "/home/server/Workspace/ThanhThao/dr_server/src/dr_app/route.py", line 74, in diagnose_dr
    cv2.imwrite(_tmp, data)
TypeError: Expected cv::UMat for argument 'img'
[2020-10-19 22:20:12,185] 10.0.1.3 requested http://fiisoft.ddns.net:5000/predict-dr
ERROR in app: Exception on /predict-dr [POST]
Traceback (most recent call last):
  File "/home/server/.virtualenvs/dr-server/lib/python3.6/site-packages/flask/app.py", line 2447, in wsgi_app
    response = self.full_dispatch_request()
  File "/home/server/.virtualenvs/dr-server/lib/python3.6/site-packages/flask/app.py", line 1952, in full_dispatch_request
    rv = self.handle_user_exception(e)
  File "/home/server/.virtualenvs/dr-server/lib/python3.6/site-packages/flask/app.py", line 1821, in handle_user_exception
    reraise(exc_type, exc_value, tb)
  File "/home/server/.virtualenvs/dr-server/lib/python3.6/site-packages/flask/_compat.py", line 39, in reraise
    raise value
  File "/home/server/.virtualenvs/dr-server/lib/python3.6/site-packages/flask/app.py", line 1950, in full_dispatch_request
    rv = self.dispatch_request()
  File "/home/server/.virtualenvs/dr-server/lib/python3.6/site-packages/flask/app.py", line 1936, in dispatch_request
    return self.view_functions[rule.endpoint](**req.view_args)
  File "/home/server/Workspace/ThanhThao/dr_server/src/dr_app/route.py", line 99, in diagnose_dr
    return render_template("detail.html", stage_info=stage_info, image=image)
NameError: name 'image' is not defined
[2020-10-19 22:32:07,220] 10.0.1.3 requested http://fiisoft.ddns.net:5000/login
INFO in route: thanhthao10722@gmail.com logged in successfully
[2020-10-19 22:32:15,150] 10.0.1.3 requested http://fiisoft.ddns.net:5000/predict-dr
ERROR in app: Exception on /predict-dr [POST]
Traceback (most recent call last):
  File "/home/server/.virtualenvs/dr-server/lib/python3.6/site-packages/flask/app.py", line 2447, in wsgi_app
    response = self.full_dispatch_request()
  File "/home/server/.virtualenvs/dr-server/lib/python3.6/site-packages/flask/app.py", line 1952, in full_dispatch_request
    rv = self.handle_user_exception(e)
  File "/home/server/.virtualenvs/dr-server/lib/python3.6/site-packages/flask/app.py", line 1821, in handle_user_exception
    reraise(exc_type, exc_value, tb)
  File "/home/server/.virtualenvs/dr-server/lib/python3.6/site-packages/flask/_compat.py", line 39, in reraise
    raise value
  File "/home/server/.virtualenvs/dr-server/lib/python3.6/site-packages/flask/app.py", line 1950, in full_dispatch_request
    rv = self.dispatch_request()
  File "/home/server/.virtualenvs/dr-server/lib/python3.6/site-packages/flask/app.py", line 1936, in dispatch_request
    return self.view_functions[rule.endpoint](**req.view_args)
  File "/home/server/Workspace/ThanhThao/dr_server/src/dr_app/route.py", line 88, in diagnose_dr
    return redirect(url_for("detail", predict_id=predict._id, user_id=user._id))
NameError: name 'predict' is not defined
[2020-10-19 22:32:58,213] 10.0.1.3 requested http://fiisoft.ddns.net:5000/predict/4eb19d41-1c84-4f47-b82e-55c5f334747b/user/5d32cc6c-816e-4837-ace7-951444c9709d
ERROR in app: Exception on /predict/4eb19d41-1c84-4f47-b82e-55c5f334747b/user/5d32cc6c-816e-4837-ace7-951444c9709d [GET]
Traceback (most recent call last):
  File "/home/server/.virtualenvs/dr-server/lib/python3.6/site-packages/flask/app.py", line 2447, in wsgi_app
    response = self.full_dispatch_request()
  File "/home/server/.virtualenvs/dr-server/lib/python3.6/site-packages/flask/app.py", line 1952, in full_dispatch_request
    rv = self.handle_user_exception(e)
  File "/home/server/.virtualenvs/dr-server/lib/python3.6/site-packages/flask/app.py", line 1821, in handle_user_exception
    reraise(exc_type, exc_value, tb)
  File "/home/server/.virtualenvs/dr-server/lib/python3.6/site-packages/flask/_compat.py", line 39, in reraise
    raise value
  File "/home/server/.virtualenvs/dr-server/lib/python3.6/site-packages/flask/app.py", line 1950, in full_dispatch_request
    rv = self.dispatch_request()
  File "/home/server/.virtualenvs/dr-server/lib/python3.6/site-packages/flask/app.py", line 1936, in dispatch_request
    return self.view_functions[rule.endpoint](**req.view_args)
TypeError: detail() got an unexpected keyword argument 'user_id'
